test.vcd
$date
	Wed Sep 16 18:06:43 2020
$end
$version
	Icarus Verilog
$end
$timescale
	1s
$end
$scope module counterA $end
$var wire 4 ! D [3:0] $end
$var wire 1 " _004_ $end
$var wire 1 # _005_ $end
$var wire 1 $ _020_ $end
$var wire 1 % _021_ $end
$var wire 1 & _024_ $end
$var wire 1 ' _025_ $end
$var wire 1 ( _026_ $end
$var wire 1 ) _027_ $end
$var wire 1 * _028_ $end
$var wire 1 + _029_ $end
$var wire 1 , _030_ $end
$var wire 1 - _031_ $end
$var wire 1 . _032_ $end
$var wire 1 / _033_ $end
$var wire 1 0 _034_ $end
$var wire 1 1 _035_ $end
$var wire 1 2 _036_ $end
$var wire 1 3 _037_ $end
$var wire 1 4 _038_ $end
$var wire 1 5 _039_ $end
$var wire 1 6 _040_ $end
$var wire 1 7 _041_ $end
$var wire 1 8 _043_ $end
$var wire 1 9 _045_ $end
$var wire 1 : _053_ $end
$var wire 1 ; _055_ $end
$var wire 1 < _056_ $end
$var wire 1 = clk $end
$var wire 1 > enable $end
$var wire 2 ? mode [1:0] $end
$var wire 1 @ reset $end
$var wire 32 A _054_ [31:0] $end
$var wire 32 B _052_ [31:0] $end
$var wire 32 C _051_ [31:0] $end
$var wire 32 D _050_ [31:0] $end
$var wire 4 E _049_ [3:0] $end
$var wire 4 F _048_ [3:0] $end
$var wire 16 G _047_ [15:0] $end
$var wire 1 H _046_ $end
$var wire 4 I _044_ [3:0] $end
$var wire 4 J _042_ [3:0] $end
$var wire 2 K _023_ [1:0] $end
$var wire 4 L _022_ [3:0] $end
$var wire 2 M _019_ [1:0] $end
$var wire 2 N _018_ [1:0] $end
$var wire 2 O _017_ [1:0] $end
$var wire 2 P _016_ [1:0] $end
$var wire 2 Q _015_ [1:0] $end
$var wire 2 R _014_ [1:0] $end
$var wire 2 S _013_ [1:0] $end
$var wire 2 T _012_ [1:0] $end
$var wire 2 U _011_ [1:0] $end
$var wire 2 V _010_ [1:0] $end
$var wire 2 W _009_ [1:0] $end
$var wire 2 X _008_ [1:0] $end
$var wire 32 Y _007_ [31:0] $end
$var wire 32 Z _006_ [31:0] $end
$var wire 1 [ _003_ $end
$var wire 1 \ _002_ $end
$var wire 1 ] _001_ $end
$var wire 4 ^ _000_ [3:0] $end
$var reg 4 _ Q [3:0] $end
$var reg 1 ` load $end
$var reg 1 a rco $end
$upscope $end
$scope module counterB $end
$var wire 4 b D [3:0] $end
$var wire 1 c _005_ $end
$var wire 1 d _012_ $end
$var wire 1 e _013_ $end
$var wire 1 f _019_ $end
$var wire 1 g _020_ $end
$var wire 1 h _023_ $end
$var wire 1 i _024_ $end
$var wire 1 j _025_ $end
$var wire 1 k _026_ $end
$var wire 1 l _027_ $end
$var wire 1 m _028_ $end
$var wire 1 n _029_ $end
$var wire 1 o _030_ $end
$var wire 1 p _031_ $end
$var wire 1 q _032_ $end
$var wire 1 r _033_ $end
$var wire 1 s _034_ $end
$var wire 1 t _035_ $end
$var wire 1 u _036_ $end
$var wire 1 v _037_ $end
$var wire 1 w _038_ $end
$var wire 1 x _039_ $end
$var wire 1 y _040_ $end
$var wire 1 z _042_ $end
$var wire 1 { _044_ $end
$var wire 1 | _045_ $end
$var wire 1 } _048_ $end
$var wire 1 ~ _051_ $end
$var wire 1 !" _062_ $end
$var wire 1 "" _063_ $end
$var wire 1 #" _065_ $end
$var wire 1 $" _066_ $end
$var wire 1 %" clk $end
$var wire 1 &" enable $end
$var wire 2 '" mode [1:0] $end
$var wire 1 (" reset $end
$var wire 32 )" _064_ [31:0] $end
$var wire 32 *" _061_ [31:0] $end
$var wire 32 +" _060_ [31:0] $end
$var wire 32 ," _059_ [31:0] $end
$var wire 4 -" _058_ [3:0] $end
$var wire 4 ." _057_ [3:0] $end
$var wire 4 /" _056_ [3:0] $end
$var wire 16 0" _055_ [15:0] $end
$var wire 1 1" _054_ $end
$var wire 1 2" _053_ $end
$var wire 1 3" _052_ $end
$var wire 3 4" _050_ [2:0] $end
$var wire 1 5" _049_ $end
$var wire 1 6" _047_ $end
$var wire 1 7" _046_ $end
$var wire 1 8" _043_ $end
$var wire 4 9" _041_ [3:0] $end
$var wire 2 :" _022_ [1:0] $end
$var wire 4 ;" _021_ [3:0] $end
$var wire 2 <" _018_ [1:0] $end
$var wire 2 =" _017_ [1:0] $end
$var wire 2 >" _016_ [1:0] $end
$var wire 2 ?" _015_ [1:0] $end
$var wire 2 @" _014_ [1:0] $end
$var wire 2 A" _011_ [1:0] $end
$var wire 2 B" _010_ [1:0] $end
$var wire 2 C" _009_ [1:0] $end
$var wire 2 D" _008_ [1:0] $end
$var wire 2 E" _007_ [1:0] $end
$var wire 2 F" _006_ [1:0] $end
$var wire 32 G" _004_ [31:0] $end
$var wire 32 H" _003_ [31:0] $end
$var wire 1 I" _002_ $end
$var wire 1 J" _001_ $end
$var wire 4 K" _000_ [3:0] $end
$var reg 4 L" Q [3:0] $end
$var reg 1 M" load $end
$var reg 1 N" rco $end
$upscope $end
$scope module tb_top $end
$var wire 1 O" sb_RCO $end
$var wire 4 P" sb_Q [3:0] $end
$var wire 1 Q" sb_LOAD $end
$var wire 1 R" clock $end
$var wire 1 S" RESET $end
$var wire 1 T" RCO $end
$var wire 4 U" Q [3:0] $end
$var wire 2 V" MODO [1:0] $end
$var wire 1 W" LOAD $end
$var wire 1 X" ENABLE $end
$var wire 4 Y" D [3:0] $end
$scope module clock $end
$var reg 1 R" clock $end
$upscope $end
$scope module dutC $end
$var wire 1 Z" _005_ $end
$var wire 1 [" _006_ $end
$var wire 1 \" _017_ $end
$var wire 1 ]" _018_ $end
$var wire 1 ^" _021_ $end
$var wire 1 _" _022_ $end
$var wire 1 `" _023_ $end
$var wire 1 a" _024_ $end
$var wire 1 b" _025_ $end
$var wire 1 c" _026_ $end
$var wire 1 d" _027_ $end
$var wire 1 e" _028_ $end
$var wire 1 f" _029_ $end
$var wire 1 g" _030_ $end
$var wire 1 h" _031_ $end
$var wire 1 i" _032_ $end
$var wire 1 j" _033_ $end
$var wire 1 k" _034_ $end
$var wire 1 l" _036_ $end
$var wire 1 m" _038_ $end
$var wire 1 n" _039_ $end
$var wire 1 o" _040_ $end
$var wire 1 p" _041_ $end
$var wire 1 q" _052_ $end
$var wire 1 r" _053_ $end
$var wire 1 s" _055_ $end
$var wire 1 t" _056_ $end
$var wire 1 R" clk $end
$var wire 1 S" reset $end
$var wire 2 u" mode [1:0] $end
$var wire 1 X" enable $end
$var wire 32 v" _054_ [31:0] $end
$var wire 32 w" _051_ [31:0] $end
$var wire 32 x" _050_ [31:0] $end
$var wire 32 y" _049_ [31:0] $end
$var wire 4 z" _048_ [3:0] $end
$var wire 4 {" _047_ [3:0] $end
$var wire 4 |" _046_ [3:0] $end
$var wire 16 }" _045_ [15:0] $end
$var wire 1 ~" _044_ $end
$var wire 1 !# _043_ $end
$var wire 1 "# _042_ $end
$var wire 1 ## _037_ $end
$var wire 4 $# _035_ [3:0] $end
$var wire 2 %# _020_ [1:0] $end
$var wire 4 &# _019_ [3:0] $end
$var wire 2 '# _016_ [1:0] $end
$var wire 2 (# _015_ [1:0] $end
$var wire 2 )# _014_ [1:0] $end
$var wire 2 *# _013_ [1:0] $end
$var wire 2 +# _012_ [1:0] $end
$var wire 2 ,# _011_ [1:0] $end
$var wire 2 -# _010_ [1:0] $end
$var wire 2 .# _009_ [1:0] $end
$var wire 2 /# _008_ [1:0] $end
$var wire 2 0# _007_ [1:0] $end
$var wire 32 1# _004_ [31:0] $end
$var wire 32 2# _003_ [31:0] $end
$var wire 1 3# _002_ $end
$var wire 1 4# _001_ $end
$var wire 4 5# _000_ [3:0] $end
$var wire 4 6# D [3:0] $end
$var reg 4 7# Q [3:0] $end
$var reg 1 W" load $end
$var reg 1 T" rco $end
$upscope $end
$scope module tb $end
$var wire 1 W" LOAD $end
$var wire 4 8# Q [3:0] $end
$var wire 1 T" RCO $end
$var wire 1 R" clk $end
$var wire 1 9# sb_wRCO $end
$var wire 4 :# sb_wQ [3:0] $end
$var wire 1 ;# sb_wLOAD $end
$var reg 4 <# D [3:0] $end
$var reg 1 X" ENABLE $end
$var reg 2 =# MODO [1:0] $end
$var reg 1 S" RESET $end
$var reg 1 Q" sb_LOAD $end
$var reg 4 ># sb_Q [3:0] $end
$var reg 1 O" sb_RCO $end
$var integer 32 ?# log [31:0] $end
$scope module sb $end
$var wire 1 X" ENABLE $end
$var wire 1 S" RESET $end
$var wire 1 R" clk $end
$var wire 4 @# sb_D [3:0] $end
$var wire 2 A# sb_MODO [1:0] $end
$var reg 2 B# MODO [1:0] $end
$var reg 1 ;# sb_LOAD $end
$var reg 4 C# sb_Q [3:0] $end
$var reg 1 9# sb_RCO $end
$upscope $end
$scope task checker $end
$var integer 32 D# iteration [31:0] $end
$upscope $end
$scope task drv_MODO00_request $end
$var integer 32 E# iteration [31:0] $end
$upscope $end
$scope task drv_MODO01_request $end
$var integer 32 F# iteration [31:0] $end
$upscope $end
$scope task drv_MODO10_request $end
$var integer 32 G# iteration [31:0] $end
$upscope $end
$scope task drv_MODO_request $end
$var integer 32 H# iteration [31:0] $end
$upscope $end
$scope task drv_RESET2_request $end
$var integer 32 I# iteration [31:0] $end
$upscope $end
$scope task drv_RESET_request $end
$var integer 32 J# iteration [31:0] $end
$upscope $end
$scope task drv_init $end
$upscope $end
$scope task drv_random_request $end
$var integer 32 K# iteration [31:0] $end
$upscope $end
$upscope $end
$upscope $end
$enddefinitions $end
#0
$dumpvars
bx K#
bx J#
bx I#
bx H#
bx G#
bx F#
bx E#
bx D#
bx C#
bx B#
bx A#
bx @#
b10 ?#
bx >#
bx =#
bx <#
x;#
bx :#
x9#
bx 8#
bx 7#
bx 6#
bx 5#
04#
13#
bzxxxx 2#
bzxxxz 1#
bx 0#
bzx /#
bzx .#
bx -#
bzx ,#
bx +#
bx *#
bx )#
bx (#
bx '#
bxz &#
bx %#
bxzz $#
x##
1"#
x!#
0~"
bx }"
bx |"
bx {"
b1111 z"
bzxxzz y"
bzxxz x"
bzxxz w"
bzxzz v"
bx u"
xt"
xs"
xr"
xq"
xp"
xo"
xn"
xm"
xl"
xk"
xj"
0i"
xh"
xg"
xf"
xe"
xd"
xc"
xb"
xa"
x`"
x_"
x^"
x]"
x\"
x["
xZ"
bx Y"
0X"
xW"
bx V"
bx U"
xT"
xS"
0R"
xQ"
bx P"
xO"
xN"
xM"
bx L"
bx K"
xJ"
xI"
bzxxxx H"
bzxxxz G"
bx F"
bzx E"
bxz D"
bzx C"
bx B"
bx A"
bx @"
bx ?"
bx >"
bx ="
bx <"
bxz ;"
bx :"
bxzz 9"
x8"
x7"
x6"
x5"
bxzz 4"
x3"
x2"
x1"
bx 0"
bx /"
bx ."
bx -"
bzxxxx ,"
bzxxz +"
bzxxz *"
bzxxx )"
z("
bz '"
z&"
z%"
x$"
x#"
x""
x!"
x~
x}
x|
x{
xz
xy
xx
xw
xv
xu
xt
xs
xr
zq
xp
xo
xn
xm
xl
xk
xj
xi
xh
xg
xf
xe
xd
xc
bz b
xa
x`
bx _
bx ^
x]
x\
x[
bzxxxx Z
bzxxxz Y
bx X
bzx W
bxz V
bzx U
bx T
bx S
bx R
bx Q
bx P
bx O
bx N
bxz M
bxz L
bx K
bzxx J
bxzxz I
xH
bx G
bx F
bx E
bzxxzz D
bzxxz C
bzxxz B
bzxzz A
z@
bz ?
z>
z=
x<
x;
x:
x9
x8
x7
x6
x5
x4
x3
x2
x1
x0
x/
x.
x-
z,
x+
x*
x)
x(
x'
x&
x%
x$
x#
x"
bz !
$end
#5
bz P"
bz >#
bz :#
bz C#
0W"
1T"
1R"
#10
b0 5#
0d"
1S"
0R"
#15
b0xzz $#
0j"
0k"
bx0 -#
0f"
0e"
0g"
1^"
1`"
1_"
bz0zz v"
1h"
bz11zz y"
0t"
b11 0#
0\"
bz1 .#
bz1 /#
b0xxxxxx000xxxxx }"
bz00z x"
b111z &#
b0 '#
0s"
bz00z w"
bz0011 2#
bz000z 1#
b0 P"
b0 >#
0Q"
0O"
b0 U"
b0 7#
b0 8#
09#
0;#
b0 :#
b0 C#
1R"
#20
b1111 5#
1d"
0S"
0R"
#25
1j"
1k"
bx -#
1e"
b0x (#
bx )#
bx0zz $#
0`"
0h"
bz0 .#
1\"
b1 0#
b0x0xxx00000xxxx }"
0s"
bz11z x"
bz11z w"
bz1zz v"
b11 '#
bz0010 2#
b0z &#
bz000z 1#
bz P"
bz >#
bz :#
bz C#
b1111 U"
b1111 7#
b1111 8#
1R"
#30
0R"
#35
1R"
#40
b0 {"
b0 |"
b0 (#
b0 5#
03#
14#
0"#
1~"
b0 z"
1i"
b0 Y"
b0 6#
b0 <#
b0 @#
1X"
0##
1q"
0l"
1!#
bz1 ,#
b0 )#
b0 +#
b0 *#
1r"
1m"
0Z"
0a"
b0zz $#
b0 }"
0["
b0 -#
0p"
0o"
0n"
b0 %#
1]"
1c"
1b"
b11 B#
b11 V"
b11 u"
b11 =#
b11 A#
b1100100 H#
b1100100 D#
0R"
#45
0j"
0k"
0e"
1`"
0f"
0g"
1h"
1^"
1_"
bz1 .#
0\"
b11 0#
bz1 /#
bz00z x"
bz0zz v"
bz00z w"
b0 '#
bz0011 2#
b111z &#
bz000z 1#
b0 P"
b0 >#
1Q"
1;#
b0 :#
b0 C#
b0 U"
b0 7#
b0 8#
1W"
0T"
1R"
#50
b11 5#
03#
0"#
b11 z"
0##
04#
0l"
b11 {"
0~"
0!#
bz0 ,#
b0 -#
b10 )#
b0 +#
b0 *#
b11 |"
0m"
1a"
b0zz $#
1["
1Z"
b10 (#
1p"
0o"
0n"
b11 %#
0]"
1c"
1b"
b11000000000000 }"
b0 B#
b0 V"
b0 u"
b0 =#
b0 A#
b1 Y"
b1 6#
b1 <#
b1 @#
0R"
#55
b110 5#
b110 z"
b110 {"
b10 +#
b110 |"
b0 (#
b10 )#
bz1zz v"
0h"
bz00zz y"
1t"
1\"
bz010z 1#
bz0 .#
b110000000000000 }"
bz01z x"
b110z &#
b1 '#
0s"
bz01z w"
bz0110 2#
b11 P"
b11 >#
0Q"
0W"
b11 U"
b11 7#
b11 8#
0;#
b11 :#
b11 C#
1R"
#60
b10 Y"
b10 6#
b10 <#
b10 @#
0R"
#65
b1001 5#
b1001 z"
b1001 {"
b10 *#
b1001 |"
b10 (#
b0 )#
b0 +#
bz1 .#
b1001000000000000 }"
bz01zz y"
0t"
b10 0#
b11 '#
bz11z x"
bz00z w"
bz1001 2#
b100z &#
bz011z 1#
b110 P"
b110 >#
b110 :#
b110 C#
b110 U"
b110 7#
b110 8#
1R"
#70
b11 Y"
b11 6#
b11 <#
b11 @#
0R"
#75
b1100 5#
b1100 z"
b1100 {"
b1100 |"
bz10zz y"
1t"
b10 *#
b10 +#
b0 (#
b0 )#
1s"
bz0 /#
b1100000000000000 }"
bz1zz v"
bz101z 1#
bz01z x"
b11z &#
b11 0#
bz1100 2#
b1001 P"
b1001 >#
b1001 U"
b1001 7#
b1001 8#
b1001 :#
b1001 C#
1R"
#80
b100 Y"
b100 6#
b100 <#
b100 @#
0R"
#85
b1111 5#
b1111 z"
b1111 {"
b10 *#
b1111 |"
b10 (#
b10 )#
b10 +#
bz1 /#
b1111000000000000 }"
bz10zz y"
0t"
b1 0#
b10 '#
0s"
bz00z x"
bz1111 2#
b1z &#
bz110z 1#
b1100 P"
b1100 >#
b1100 :#
b1100 C#
b1100 U"
b1100 7#
b1100 8#
1R"
#90
b101 Y"
b101 6#
b101 <#
b101 @#
0R"
#95
13#
1"#
1##
1l"
b10 5#
b10 -#
b10 z"
b0 *#
b10zz $#
b10 {"
1j"
b0 +#
1k"
b10 |"
1e"
b0 (#
0`"
b10 )#
bz11zz y"
bz000z 1#
bz0 .#
b10000000000000 }"
bz11z x"
b0z &#
b11 '#
0s"
bz11z w"
bz0010 2#
b1111 P"
b1111 >#
b1111 U"
b1111 7#
b1111 8#
b1111 :#
b1111 C#
1R"
#100
b110 Y"
b110 6#
b110 <#
b110 @#
0R"
#105
03#
0"#
0##
b101 5#
0l"
b101 z"
b0 -#
b101 {"
b0zz $#
0j"
b101 |"
0k"
0e"
b10 (#
b0 )#
b10 +#
b0 *#
1`"
0f"
1^"
bz1 .#
bz00zz y"
1t"
b101000000000000 }"
b10 0#
bz01z x"
bz1zz v"
bz00z w"
b1 '#
bz0101 2#
b110z &#
bz001z 1#
b10 P"
b10 >#
1O"
b10 :#
b10 C#
19#
b10 U"
b10 7#
b10 8#
1T"
1R"
#110
b1 5#
b1 |"
03#
b1 z"
0"#
b10 (#
b0 +#
0##
b1 {"
1r"
1o"
1q"
1Z"
0c"
b100000000 }"
1["
0p"
b10 %#
1]"
b1 B#
b1 V"
b1 u"
b1 =#
b1 A#
b111 Y"
b111 6#
b111 <#
b111 @#
0R"
#115
b0 5#
b0 z"
b0 *#
b0 {"
b0 +#
b0 |"
b0 (#
b0 )#
bz1zz v"
bz00zz y"
1t"
1s"
bz0 /#
b0 }"
bz01z x"
b111z &#
b11 0#
bz0100 2#
b1 P"
b1 >#
0O"
0T"
b1 U"
b1 7#
b1 8#
09#
b1 :#
b1 C#
1R"
#120
b1000 Y"
b1000 6#
b1000 <#
b1000 @#
0R"
#125
b1111 5#
13#
1"#
b10 *#
b1111 z"
1##
1l"
b1111 {"
b10 +#
b10 -#
b1111 |"
b1zz $#
bz0zz v"
b10 (#
b10 )#
1h"
bz11zz y"
0t"
0\"
bz1 /#
b111100000000 }"
bz00z x"
b0 '#
0s"
bz0011 2#
bz000z 1#
b0 P"
b0 >#
b0 :#
b0 C#
b0 U"
b0 7#
b0 8#
1R"
#130
b1001 Y"
b1001 6#
b1001 <#
b1001 @#
0R"
#135
b1110 5#
03#
0"#
b1110 z"
0##
0l"
b1110 {"
1j"
b0 -#
1k"
b1110 |"
1e"
b0zz $#
b0 (#
0`"
b10 )#
0h"
b1 0#
1\"
bz0 .#
b111000000000 }"
bz1zz v"
bz000z 1#
bz11z x"
b0z &#
b11 '#
0s"
bz11z w"
bz0010 2#
b1111 P"
b1111 >#
1O"
1T"
b1111 U"
b1111 7#
b1111 8#
b1111 :#
b1111 C#
19#
1R"
#140
b0 5#
1l"
b0 |"
13#
b0 z"
1"#
b1 -#
bz1 ,#
b0 )#
b0 +#
b0 *#
1##
b0 {"
1r"
1n"
1q"
1Z"
0b"
b0 }"
0["
0o"
b1 %#
1c"
b10 B#
b10 V"
b10 u"
b10 =#
b10 A#
b1010 Y"
b1010 6#
b1010 <#
b1010 @#
0R"
#145
b1 5#
03#
0"#
b1 z"
0##
0l"
b1 {"
b0 -#
0j"
0k"
b1 |"
0e"
b1 (#
b0 +#
1`"
b0 *#
0f"
0g"
1h"
1^"
1_"
bz1 .#
0\"
b10000 }"
b11 0#
bz1 /#
bz00z x"
bz0zz v"
bz00z w"
b0 '#
bz0011 2#
b111z &#
bz000z 1#
b0 P"
b0 >#
b0 :#
b0 C#
b0 U"
b0 7#
b0 8#
1R"
#150
b1011 5#
14#
03#
b1011 z"
b1 )#
b1 *#
1~"
b1011 |"
0"#
1!#
0##
b1011 {"
b1 (#
1q"
1m"
1r"
0a"
b1011 }"
bz1 ,#
0Z"
0n"
b0 %#
1b"
b11 B#
b11 V"
b11 u"
b11 =#
b11 A#
b1011 Y"
b1011 6#
b1011 <#
b1011 @#
0R"
#155
bz1zz v"
0h"
bz10zz y"
1t"
1\"
bz0 .#
bz110z 1#
bz01z x"
b10z &#
b11 '#
0s"
bz01z w"
bz1110 2#
b1011 P"
b1011 >#
1Q"
0O"
0T"
1W"
b1011 U"
b1011 7#
b1011 8#
1;#
b1011 :#
b1011 C#
09#
1R"
#160
b1110 5#
b1110 z"
04#
b1110 {"
0~"
0!#
bz0 ,#
b10 *#
b1110 |"
0m"
1a"
1["
1Z"
b10 +#
b10 )#
b0 (#
1p"
0o"
0n"
b11 %#
0]"
1c"
1b"
b1110000000000000 }"
b0 B#
b0 V"
b0 u"
b0 =#
b0 A#
b1100 Y"
b1100 6#
b1100 <#
b1100 @#
0R"
#165
13#
1"#
1##
b1 5#
1l"
b1 z"
b10 -#
b1 {"
b10zz $#
1j"
b0 *#
b1 |"
1k"
1f"
b10 (#
b0 )#
b0 +#
0^"
bz1 .#
b1000000000000 }"
bz11zz y"
0t"
b0 0#
bz11z x"
bz00z w"
bz0001 2#
b0z &#
bz111z 1#
b1110 P"
b1110 >#
0Q"
0;#
b1110 :#
b1110 C#
b1110 U"
b1110 7#
b1110 8#
0W"
1R"
#170
b1101 Y"
b1101 6#
b1101 <#
b1101 @#
0R"
#175
03#
0"#
b100 5#
0##
0l"
b100 z"
b0 -#
b100 {"
b0zz $#
b100 |"
bz00zz y"
1t"
0j"
b0 *#
b10 +#
0k"
b0 (#
b0 )#
0f"
1s"
1^"
bz0 /#
b100000000000000 }"
b1 '#
bz1zz v"
bz001z 1#
bz01z x"
b111z &#
b11 0#
bz0100 2#
b1 P"
b1 >#
1O"
1T"
b1 U"
b1 7#
b1 8#
b1 :#
b1 C#
19#
1R"
#180
b0 5#
b0 |"
03#
b0 z"
0"#
b0 +#
0##
b0 {"
1r"
1o"
1q"
1Z"
0c"
b0 }"
1["
0p"
b10 %#
1]"
b1 B#
b1 V"
b1 u"
b1 =#
b1 A#
b1110 Y"
b1110 6#
b1110 <#
b1110 @#
0R"
#185
b1111 5#
13#
1"#
b10 *#
b1111 z"
1##
1l"
b1111 {"
b10 +#
b10 -#
b1111 |"
b1zz $#
bz0zz v"
b10 (#
b10 )#
1h"
bz11zz y"
0t"
0\"
bz1 /#
b111100000000 }"
bz00z x"
b0 '#
0s"
bz0011 2#
bz000z 1#
b0 P"
b0 >#
0O"
09#
b0 :#
b0 C#
b0 U"
b0 7#
b0 8#
0T"
1R"
#190
b1111 Y"
b1111 6#
b1111 <#
b1111 @#
0R"
#195
b1110 5#
03#
0"#
b1110 z"
0##
0l"
b1110 {"
1j"
b0 -#
1k"
b1110 |"
1e"
b0zz $#
b0 (#
0`"
b10 )#
0h"
b1 0#
1\"
bz0 .#
b111000000000 }"
bz1zz v"
bz000z 1#
bz11z x"
b0z &#
b11 '#
0s"
bz11z w"
bz0010 2#
b1111 P"
b1111 >#
1O"
1T"
b1111 U"
b1111 7#
b1111 8#
b1111 :#
b1111 C#
19#
1R"
#200
b0 5#
1l"
b0 |"
13#
b0 z"
1"#
b1 -#
bz1 ,#
b0 )#
b0 +#
b0 *#
1##
b0 {"
1r"
1n"
1q"
1Z"
0b"
b0 }"
0["
0o"
b1 %#
1c"
b10 B#
b10 V"
b10 u"
b10 =#
b10 A#
b0 Y"
b0 6#
b0 <#
b0 @#
0R"
#205
b1 5#
03#
0"#
b1 z"
0##
0l"
b1 {"
b0 -#
0j"
0k"
b1 |"
0e"
b1 (#
b0 +#
1`"
b0 *#
0f"
0g"
1h"
1^"
1_"
bz1 .#
0\"
b10000 }"
b11 0#
bz1 /#
bz00z x"
bz0zz v"
bz00z w"
b0 '#
bz0011 2#
b111z &#
bz000z 1#
b0 P"
b0 >#
b0 :#
b0 C#
b0 U"
b0 7#
b0 8#
1R"
#210
b1 5#
14#
03#
b1 z"
1~"
b1 |"
0"#
1!#
0##
b1 {"
b1 (#
1q"
1m"
1r"
0a"
b1 }"
bz1 ,#
0Z"
0n"
b0 %#
1b"
b11 B#
b11 V"
b11 u"
b11 =#
b11 A#
b1 Y"
b1 6#
b1 <#
b1 @#
0R"
#215
bz1zz v"
0h"
bz00zz y"
1t"
1\"
bz0 /#
bz01z x"
b1 '#
1s"
bz0100 2#
bz001z 1#
b1 P"
b1 >#
1Q"
0O"
0T"
1W"
b1 U"
b1 7#
b1 8#
1;#
b1 :#
b1 C#
09#
1R"
#220
b100 5#
b100 z"
04#
b100 {"
0~"
0!#
bz0 ,#
b10 +#
b100 |"
0m"
1a"
1["
1Z"
b0 )#
b0 (#
1p"
0o"
0n"
b11 %#
0]"
1c"
1b"
b100000000000000 }"
b0 B#
b0 V"
b0 u"
b0 =#
b0 A#
b10 Y"
b10 6#
b10 <#
b10 @#
0R"
#225
b111 5#
b111 z"
b111 {"
b0 *#
b111 |"
b10 (#
b10 )#
b10 +#
bz1 /#
b111000000000000 }"
bz00zz y"
0t"
0s"
b10 '#
bz00z x"
bz0111 2#
b101z &#
bz010z 1#
b100 P"
b100 >#
0Q"
0;#
b100 :#
b100 C#
b100 U"
b100 7#
b100 8#
0W"
1R"
#230
b11 Y"
b11 6#
b11 <#
b11 @#
0R"
#235
b1010 5#
b1010 z"
b10 *#
b1010 {"
b0 +#
b1010 |"
b0 (#
b10 )#
bz01zz y"
bz100z 1#
bz0 .#
b1010000000000000 }"
bz11z x"
b100z &#
b11 '#
0s"
bz11z w"
bz1010 2#
b111 P"
b111 >#
b111 U"
b111 7#
b111 8#
b111 :#
b111 C#
1R"
#240
b100 Y"
b100 6#
b100 <#
b100 @#
0R"
#245
b1101 5#
b1101 z"
b1101 {"
b1101 |"
b10 (#
b0 )#
b10 +#
b10 *#
bz1 .#
bz10zz y"
1t"
b1101000000000000 }"
b10 0#
bz01z x"
bz1zz v"
bz00z w"
bz1101 2#
b10z &#
bz101z 1#
b1010 P"
b1010 >#
b1010 :#
b1010 C#
b1010 U"
b1010 7#
b1010 8#
1R"
#250
b101 Y"
b101 6#
b101 <#
b101 @#
0R"
#255
13#
1"#
1##
b0 5#
1l"
b0 z"
b10 -#
b0 {"
b10zz $#
b0 *#
1j"
b0 |"
bz11zz y"
1g"
b0 +#
b0 (#
0_"
b0 )#
0t"
1s"
bz0 /#
b0 }"
bz111z 1#
bz11z x"
b1z &#
b1 0#
bz0000 2#
b1101 P"
b1101 >#
b1101 U"
b1101 7#
b1101 8#
b1101 :#
b1101 C#
1R"
#260
b110 Y"
b110 6#
b110 <#
b110 @#
0R"
#265
03#
0"#
b11 5#
0##
0l"
b11 z"
b0 -#
b11 {"
b0zz $#
b11 |"
0j"
0g"
b10 (#
b10 )#
b0 +#
b0 *#
1_"
1h"
bz1 /#
bz11zz y"
0t"
0\"
b11000000000000 }"
b11 0#
0s"
bz00z x"
bz0zz v"
b0 '#
bz0011 2#
b111z &#
bz000z 1#
b0 P"
b0 >#
1O"
b0 :#
b0 C#
19#
b0 U"
b0 7#
b0 8#
1T"
1R"
#270
1l"
b1111 5#
b10 -#
b10 +#
b10 *#
b1111 |"
13#
b1111 z"
1"#
b1zz $#
b10 (#
b10 )#
1##
b1111 {"
1r"
1o"
1q"
1Z"
0c"
b111100000000 }"
1["
0p"
b10 %#
1]"
b1 B#
b1 V"
b1 u"
b1 =#
b1 A#
b111 Y"
b111 6#
b111 <#
b111 @#
0R"
#275
b1110 5#
03#
0"#
b1110 z"
0##
0l"
b1110 {"
1j"
b0 -#
1k"
b1110 |"
1e"
b0zz $#
b0 (#
0`"
b10 )#
0h"
b1 0#
1\"
bz0 .#
b111000000000 }"
bz1zz v"
bz000z 1#
bz11z x"
b0z &#
b11 '#
0s"
bz11z w"
bz0010 2#
b1111 P"
b1111 >#
b1111 U"
b1111 7#
b1111 8#
b1111 :#
b1111 C#
1R"
#280
b0 5#
1l"
b0 |"
13#
b0 z"
1"#
b1 -#
bz1 ,#
b0 )#
b0 +#
b0 *#
1##
b0 {"
1r"
1n"
1q"
1Z"
0b"
b0 }"
0["
0o"
b1 %#
1c"
b10 B#
b10 V"
b10 u"
b10 =#
b10 A#
b1000 Y"
b1000 6#
b1000 <#
b1000 @#
0R"
#285
b1 5#
03#
0"#
b1 z"
0##
0l"
b1 {"
b0 -#
0j"
0k"
b1 |"
0e"
b1 (#
b0 +#
1`"
b0 *#
0f"
0g"
1h"
1^"
1_"
bz1 .#
0\"
b10000 }"
b11 0#
bz1 /#
bz00z x"
bz0zz v"
bz00z w"
b0 '#
bz0011 2#
b111z &#
bz000z 1#
b0 P"
b0 >#
b0 :#
b0 C#
b0 U"
b0 7#
b0 8#
1R"
#290
b1001 5#
14#
03#
b1001 z"
b1 *#
1~"
b1001 |"
0"#
1!#
0##
b1001 {"
b1 (#
1q"
1m"
1r"
0a"
b1001 }"
bz1 ,#
0Z"
0n"
b0 %#
1b"
b11 B#
b11 V"
b11 u"
b11 =#
b11 A#
b1001 Y"
b1001 6#
b1001 <#
b1001 @#
0R"
#295
bz1zz v"
0h"
1t"
bz10zz y"
1\"
bz0 /#
bz01z x"
b11z &#
b11 '#
1s"
bz1100 2#
bz101z 1#
b1001 P"
b1001 >#
1Q"
0O"
0T"
1W"
b1001 U"
b1001 7#
b1001 8#
1;#
b1001 :#
b1001 C#
09#
1R"
#300
b1100 5#
b1100 z"
04#
b1100 {"
0~"
0!#
bz0 ,#
b10 +#
b10 *#
b1100 |"
0m"
1a"
1["
1Z"
b0 )#
b0 (#
1p"
0o"
0n"
b11 %#
0]"
1c"
1b"
b1100000000000000 }"
b0 B#
b0 V"
b0 u"
b0 =#
b0 A#
b1010 Y"
b1010 6#
b1010 <#
b1010 @#
0R"
#305
b1111 5#
b1111 z"
b1111 {"
b10 *#
b1111 |"
b10 (#
b10 )#
b10 +#
bz1 /#
b1111000000000000 }"
bz10zz y"
0t"
b1 0#
b10 '#
0s"
bz00z x"
bz1111 2#
b1z &#
bz110z 1#
b1100 P"
b1100 >#
0Q"
0;#
b1100 :#
b1100 C#
b1100 U"
b1100 7#
b1100 8#
0W"
1R"
#310
b1011 Y"
b1011 6#
b1011 <#
b1011 @#
0R"
