arbitro_tb_capas/test.vcd
$date
	Tue Oct 20 15:28:44 2015
$end
$version
	Icarus Verilog
$end
$timescale
	1s
$end
$scope module tb_top $end
$var wire 1 ! clock $end
$var wire 1 " gnt0 $end
$var wire 1 # gnt1 $end
$var wire 1 $ req0 $end
$var wire 1 % req1 $end
$var wire 1 & reset $end
$scope module clock $end
$var reg 1 ' clock $end
$upscope $end
$scope module tb $end
$var wire 1 ! clk $end
$var wire 1 " gnt0 $end
$var wire 1 # gnt1 $end
$var integer 32 ( log [31:0] $end
$var reg 1 ) req0 $end
$var reg 1 * req1 $end
$var reg 1 + reset $end
$scope module sb $end
$var wire 1 ! clk $end
$var wire 1 $ req0 $end
$var wire 1 % req1 $end
$var wire 1 , sb_gnt0 $end
$var wire 1 - sb_gnt1 $end
$var reg 2 . sb_state [1:0] $end
$upscope $end
$scope task checker $end
$var integer 32 / iteration [31:0] $end
$upscope $end
$scope task drv_init $end
$upscope $end
$scope task drv_request $end
$var integer 32 0 iteration [31:0] $end
$upscope $end
$upscope $end
$scope module dut $end
$var wire 1 ! clock $end
$var wire 1 $ req_0 $end
$var wire 1 % req_1 $end
$var wire 1 & reset $end
$var reg 1 1 gnt_0 $end
$var reg 1 2 gnt_1 $end
$var reg 3 3 next_state [2:0] $end
$var reg 3 4 state [2:0] $end
$scope begin FSM_COMBO $end
$upscope $end
$scope begin FSM_SEQ $end
$upscope $end
$scope begin OUTPUT_LOGIC $end
$upscope $end
$upscope $end
$upscope $end
$enddefinitions $end
#0
$dumpvars
bx 4
bx 3
x2
x1
bx 0
bx /
bx .
x-
x,
x+
x*
x)
b10 (
0'
x&
x%
x$
x#
x"
0!
$end
#5
0,
0-
b0 .
1'
1!
#10
1+
1&
0'
0!
#15
02
0#
01
0"
b1 3
b1 4
1'
1!
#20
0+
0&
0'
0!
#25
1'
1!
#30
b1100100 0
b1100100 /
0'
0!
#35
1'
1!
#40
b100 3
1*
1%
0)
0$
0'
0!
#45
12
1#
b100 3
b100 4
1-
b10 .
1'
1!
#50
b100 3
1)
1$
0'
0!
#55
1'
1!
#60
0'
0!
#65
1'
1!
#70
b1 3
0*
0%
0'
0!
#75
02
0#
b10 3
b1 4
0-
b0 .
1'
1!
#80
b10 3
1*
1%
0'
0!
#85
11
1"
b10 3
b10 4
1,
b1 .
1'
1!
#90
b1 3
0)
0$
0'
0!
#95
01
0"
b100 3
b1 4
0,
b0 .
1'
1!
#100
b10 3
0*
0%
1)
1$
0'
0!
#105
11
1"
b10 3
b10 4
1,
b1 .
1'
1!
#110
0'
0!
#115
1'
1!
#120
0'
0!
#125
1'
1!
#130
b10 3
1*
1%
0'
0!
#135
1'
1!
#140
b1 3
0)
0$
0'
0!
#145
01
0"
b100 3
b1 4
0,
b0 .
1'
1!
#150
b1 3
0*
0%
0'
0!
#155
1'
1!
#160
b100 3
1*
1%
0'
0!
#165
12
1#
b100 3
b100 4
1-
b10 .
1'
1!
#170
0'
0!
#175
1'
1!
#180
b100 3
1)
1$
0'
0!
#185
1'
1!
#190
b1 3
0*
0%
0'
0!
#195
02
0#
b10 3
b1 4
0-
b0 .
1'
1!
#200
b1 3
0)
0$
0'
0!
#205
1'
1!
#210
b100 3
1*
1%
0'
0!
#215
12
1#
b100 3
b100 4
1-
b10 .
1'
1!
#220
0'
0!
#225
1'
1!
#230
b100 3
1)
1$
0'
0!
#235
1'
1!
#240
0'
0!
#245
1'
1!
#250
b1 3
0*
0%
0)
0$
0'
0!
#255
02
0#
b1 3
b1 4
0-
b0 .
1'
1!
#260
b10 3
1*
1%
1)
1$
0'
0!
#265
11
1"
b10 3
b10 4
1,
b1 .
1'
1!
#270
b10 3
0*
0%
0'
0!
#275
1'
1!
#280
b1 3
0)
0$
0'
0!
#285
01
0"
b1 3
b1 4
0,
b0 .
1'
1!
#290
0'
0!
#295
1'
1!
#300
b10 3
1)
1$
0'
0!
#305
11
1"
b10 3
b10 4
1,
b1 .
1'
1!
#310
b1 3
1*
1%
0)
0$
0'
0!
#315
01
0"
b100 3
b1 4
0,
b0 .
1'
1!
#320
b10 3
0*
0%
1)
1$
0'
0!
#325
11
1"
b10 3
b10 4
1,
b1 .
1'
1!
#330
b1 3
0)
0$
0'
0!
#335
01
0"
b1 3
b1 4
0,
b0 .
1'
1!
#340
0'
0!
#345
1'
1!
#350
b10 3
1*
1%
1)
1$
0'
0!
#355
11
1"
b10 3
b10 4
1,
b1 .
1'
1!
#360
0'
0!
#365
1'
1!
#370
b10 3
0*
0%
0'
0!
#375
1'
1!
#380
b1 3
1*
1%
0)
0$
0'
0!
#385
01
0"
b100 3
b1 4
0,
b0 .
1'
1!
#390
b10 3
1)
1$
0'
0!
#395
11
1"
b10 3
b10 4
1,
b1 .
1'
1!
#400
b1 3
0*
0%
0)
0$
0'
0!
#405
01
0"
b1 3
b1 4
0,
b0 .
1'
1!
#410
b10 3
1*
1%
1)
1$
0'
0!
#415
11
1"
b10 3
b10 4
1,
b1 .
1'
1!
#420
b1 3
0)
0$
0'
0!
#425
01
0"
b100 3
b1 4
0,
b0 .
1'
1!
#430
b10 3
0*
0%
1)
1$
0'
0!
#435
11
1"
b10 3
b10 4
1,
b1 .
1'
1!
#440
b10 3
1*
1%
0'
0!
#445
1'
1!
#450
b10 3
0*
0%
0'
0!
#455
1'
1!
#460
b10 3
1*
1%
0'
0!
#465
1'
1!
#470
b1 3
0*
0%
0)
0$
0'
0!
#475
01
0"
b1 3
b1 4
0,
b0 .
1'
1!
#480
0'
0!
#485
1'
1!
#490
b10 3
1*
1%
1)
1$
0'
0!
#495
11
1"
b10 3
b10 4
1,
b1 .
1'
1!
#500
b1 3
0*
0%
0)
0$
0'
0!
#505
01
0"
b1 3
b1 4
0,
b0 .
1'
1!
#510
b10 3
1*
1%
1)
1$
0'
0!
#515
11
1"
b10 3
b10 4
1,
b1 .
1'
1!
#520
0'
0!
#525
1'
1!
#530
b10 3
0*
0%
0'
0!
#535
1'
1!
#540
b10 3
1*
1%
0'
0!
#545
1'
1!
#550
b10 3
0*
0%
0'
0!
#555
1'
1!
#560
b1 3
0)
0$
0'
0!
#565
01
0"
b1 3
b1 4
0,
b0 .
1'
1!
#570
0'
0!
#575
1'
1!
#580
0'
0!
#585
1'
1!
#590
b10 3
1*
1%
1)
1$
0'
0!
#595
11
1"
b10 3
b10 4
1,
b1 .
1'
1!
#600
0'
0!
#605
1'
1!
#610
b10 3
0*
0%
0'
0!
#615
1'
1!
#620
b10 3
1*
1%
0'
0!
#625
1'
1!
#630
b1 3
0*
0%
0)
0$
0'
0!
#635
01
0"
b1 3
b1 4
0,
b0 .
1'
1!
#640
b10 3
1*
1%
1)
1$
0'
0!
#645
11
1"
b10 3
b10 4
1,
b1 .
1'
1!
#650
b1 3
0)
0$
0'
0!
#655
01
0"
b100 3
b1 4
0,
b0 .
1'
1!
#660
b10 3
1)
1$
0'
0!
#665
11
1"
b10 3
b10 4
1,
b1 .
1'
1!
#670
b10 3
0*
0%
0'
0!
#675
1'
1!
#680
b1 3
0)
0$
0'
0!
#685
01
0"
b1 3
b1 4
0,
b0 .
1'
1!
#690
b10 3
1)
1$
0'
0!
#695
11
1"
b10 3
b10 4
1,
b1 .
1'
1!
#700
b1 3
0)
0$
0'
0!
#705
01
0"
b1 3
b1 4
0,
b0 .
1'
1!
#710
b10 3
1*
1%
1)
1$
0'
0!
#715
11
1"
b10 3
b10 4
1,
b1 .
1'
1!
#720
b1 3
0*
0%
0)
0$
0'
0!
#725
01
0"
b1 3
b1 4
0,
b0 .
1'
1!
#730
b10 3
1)
1$
0'
0!
#735
11
1"
b10 3
b10 4
1,
b1 .
1'
1!
#740
b1 3
0)
0$
0'
0!
#745
01
0"
b1 3
b1 4
0,
b0 .
1'
1!
#750
b10 3
1)
1$
0'
0!
#755
11
1"
b10 3
b10 4
1,
b1 .
1'
1!
#760
b1 3
1*
1%
0)
0$
0'
0!
#765
01
0"
b100 3
b1 4
0,
b0 .
1'
1!
#770
0'
0!
#775
12
1#
b100 3
b100 4
1-
b10 .
1'
1!
#780
b100 3
1)
1$
0'
0!
#785
1'
1!
#790
0'
0!
#795
1'
1!
#800
b1 3
0*
0%
0)
0$
0'
0!
#805
02
0#
b1 3
b1 4
0-
b0 .
1'
1!
#810
b100 3
1*
1%
0'
0!
#815
12
1#
b100 3
b100 4
1-
b10 .
1'
1!
#820
b1 3
0*
0%
0'
0!
#825
02
0#
b1 3
b1 4
0-
b0 .
1'
1!
#830
b10 3
1*
1%
1)
1$
0'
0!
#835
11
1"
b10 3
b10 4
1,
b1 .
1'
1!
#840
b1 3
0*
0%
0)
0$
0'
0!
#845
01
0"
b1 3
b1 4
0,
b0 .
1'
1!
#850
b100 3
1*
1%
0'
0!
#855
12
1#
b100 3
b100 4
1-
b10 .
1'
1!
#860
b1 3
0*
0%
1)
1$
0'
0!
#865
02
0#
b10 3
b1 4
0-
b0 .
1'
1!
#870
b1 3
0)
0$
0'
0!
#875
1'
1!
#880
b10 3
1*
1%
1)
1$
0'
0!
#885
11
1"
b10 3
b10 4
1,
b1 .
1'
1!
#890
b1 3
0*
0%
0)
0$
0'
0!
#895
01
0"
b1 3
b1 4
0,
b0 .
1'
1!
#900
b100 3
1*
1%
0'
0!
#905
12
1#
b100 3
b100 4
1-
b10 .
1'
1!
#910
b1 3
0*
0%
0'
0!
#915
02
0#
b1 3
b1 4
0-
b0 .
1'
1!
#920
b10 3
1)
1$
0'
0!
#925
11
1"
b10 3
b10 4
1,
b1 .
1'
1!
#930
b1 3
0)
0$
0'
0!
#935
01
0"
b1 3
b1 4
0,
b0 .
1'
1!
#940
b10 3
1)
1$
0'
0!
#945
11
1"
b10 3
b10 4
1,
b1 .
1'
1!
#950
b10 3
1*
1%
0'
0!
#955
1'
1!
#960
b1 3
0*
0%
0)
0$
0'
0!
#965
01
0"
b1 3
b1 4
0,
b0 .
1'
1!
#970
0'
0!
#975
1'
1!
#980
b10 3
1)
1$
0'
0!
#985
11
1"
b10 3
b10 4
1,
b1 .
1'
1!
#990
b1 3
0)
0$
0'
0!
#995
01
0"
b1 3
b1 4
0,
b0 .
1'
1!
#1000
b100 3
1*
1%
0'
0!
#1005
12
1#
b100 3
b100 4
1-
b10 .
1'
1!
#1010
b100 3
1)
1$
0'
0!
#1015
1'
1!
#1020
b100 3
0)
0$
0'
0!
#1025
1'
1!
#1030
b100 3
1)
1$
0'
0!
